<svg width="125" height="29" viewBox="0 0 125 29" fill="none" xmlns="http://www.w3.org/2000/svg">
<g id="Group 2">
<path id="Vector" d="M53.5924 4.90942L45.2054 23.3394H48.4519L51.0222 17.718H57.3263L59.9196 23.3394H63.0692L54.8103 4.90942H53.5924ZM55.9985 14.7571H52.3877L54.1931 10.759L55.9985 14.7571Z" fill="white"/>
<path id="Vector_2" d="M76.387 18.2925C74.8786 20.0471 73.1618 20.8989 71.1348 20.8989C69.1079 20.8989 67.4617 20.2851 66.211 19.0738C64.9603 17.8625 64.3284 16.3673 64.3284 14.5373C64.3091 13.6786 64.471 12.8256 64.8036 12.0337C65.1362 11.2419 65.632 10.529 66.2586 9.94168C66.858 9.33422 67.5742 8.85441 68.364 8.53115C69.1538 8.2079 70.0009 8.04789 70.8542 8.06077C73.0617 8.06077 74.8671 8.9487 76.3755 10.7738L76.6758 11.1382L78.9326 9.39185L78.6585 9.01107C77.7902 7.78458 76.6268 6.79673 75.2758 6.13882C73.8543 5.46927 72.2989 5.13249 70.7278 5.15405C69.0702 5.14642 67.4381 5.56222 65.9861 6.36203C64.5495 7.13983 63.3544 8.29753 62.5312 9.70862C61.7051 11.1183 61.2742 12.7245 61.2839 14.3584C61.2839 17.0501 62.1882 19.3118 63.9739 21.0877C65.7596 22.8635 68.0771 23.7531 70.8542 23.7531C74.1483 23.7531 76.7776 22.5156 78.6716 20.0766L78.972 19.6893L76.6742 17.9446L76.387 18.2925Z" fill="white"/>
<path id="Vector_3" d="M88.6561 9.60513C87.1473 9.58569 85.685 10.1273 84.5529 11.125V9.92518H81.6987V27.8283H84.5529V22.225C85.7194 23.2481 87.2178 23.8127 88.7694 23.8137C89.6862 23.8241 90.595 23.6427 91.4376 23.2812C92.2802 22.9197 93.0379 22.3861 93.6621 21.7145C94.3141 21.0537 94.8281 20.2697 95.1744 19.4084C95.5207 18.547 95.6923 17.6254 95.6792 16.6971C95.6921 15.7678 95.5179 14.8454 95.1668 13.9848C94.8158 13.1242 94.2951 12.3431 93.6358 11.6879C92.9936 11.017 92.22 10.4857 91.3631 10.1273C90.5063 9.76893 89.5848 9.59117 88.6561 9.60513ZM88.6102 12.4117C89.1693 12.3997 89.7247 12.5061 90.2398 12.7239C90.7549 12.9417 91.2181 13.266 91.599 13.6755C91.9996 14.0778 92.3148 14.5569 92.5258 15.084C92.7368 15.6112 92.8391 16.1755 92.8267 16.7431C92.8389 17.3122 92.7345 17.8778 92.52 18.405C92.3055 18.9323 91.9854 19.4101 91.5793 19.809C90.7406 20.6608 89.7853 21.0744 88.6561 21.0744C88.1001 21.0857 87.5479 20.9808 87.0347 20.7666C86.5215 20.5524 86.0586 20.2335 85.6756 19.8303C85.2688 19.428 84.9492 18.9463 84.7366 18.4152C84.524 17.8841 84.4229 17.3149 84.4397 16.7431C84.4397 15.5023 84.8336 14.4912 85.6444 13.6525C86.0232 13.2481 86.4833 12.9285 86.9945 12.7146C87.5056 12.5008 88.0563 12.3976 88.6102 12.4117Z" fill="white"/>
<path id="Vector_4" d="M107.535 11.1247C106.399 10.1266 104.933 9.58509 103.421 9.60488C102.49 9.58989 101.566 9.76713 100.707 10.1255C99.848 10.4839 99.0721 11.0157 98.4279 11.6877C97.7692 12.3408 97.2488 13.12 96.8978 13.9786C96.5467 14.8373 96.3721 15.7578 96.3845 16.6854C96.3731 17.6148 96.5467 18.5373 96.8953 19.3989C97.2439 20.2606 97.7604 21.0443 98.4148 21.7044C99.0399 22.3782 99.7989 22.9139 100.643 23.2771C101.487 23.6403 102.398 23.823 103.317 23.8135C104.869 23.8128 106.369 23.2482 107.535 22.2247V23.4015H110.363V9.92493H107.534L107.535 11.1247ZM103.455 21.0742C102.9 21.0823 102.349 20.972 101.84 20.7507C101.33 20.5294 100.874 20.2021 100.501 19.7907C99.7085 18.9748 99.2636 17.8833 99.2599 16.746C99.2562 15.6087 99.6941 14.5143 100.481 13.6933C100.853 13.2809 101.31 12.953 101.819 12.7319C102.329 12.5107 102.88 12.4015 103.436 12.4115C103.989 12.3991 104.54 12.5032 105.051 12.7169C105.562 12.9307 106.023 13.2493 106.403 13.6523C107.224 14.4926 107.617 15.5069 107.617 16.7543C107.617 18.0017 107.215 19.0111 106.385 19.8416C106.007 20.2374 105.553 20.5511 105.048 20.7632C104.544 20.9752 104.002 21.0811 103.455 21.0742Z" fill="white"/>
<path id="Vector_5" d="M121.44 10.1207L117.784 18.5553L114 10.1207H110.964L116.251 22.0332L113.629 28.0239H116.664L124.5 10.1207H121.44Z" fill="white"/>
<g id="Group 5">
<path id="Vector_6" d="M23.563 27.3182C23.5612 27.1866 23.5485 27.0554 23.5252 26.9259L23.5137 26.8635L20.5315 25.7704C20.34 25.6812 20.1792 25.5372 20.0694 25.3567C19.9596 25.1762 19.9056 24.9672 19.9144 24.7561L19.9062 8.1266V7.10408C19.9062 7.08767 19.9062 7.06797 19.9062 7.04992C19.9062 6.99904 19.9062 6.94816 19.9062 6.89564C19.8766 6.70817 19.8585 6.51907 19.852 6.3294L19.5238 4.52398L19.1331 2.93029C18.8722 2.31809 18.4241 1.82406 17.5083 1.53027H9.95834C9.66127 1.53027 9.54474 1.89792 9.65306 2.49863L13.6562 24.8973C13.8925 26.2103 15.0184 27.891 15.6733 27.891H23.2232C23.4481 27.891 23.5695 27.6792 23.5679 27.3149C23.5679 27.3378 23.5679 27.3592 23.5679 27.3805C23.5613 27.3625 23.563 27.3411 23.563 27.3182ZM23.3282 27.8516C23.2933 27.866 23.2561 27.8738 23.2183 27.8745C23.2561 27.8738 23.2933 27.866 23.3282 27.8516ZM23.5498 27.4872C23.5498 27.4724 23.5498 27.4593 23.5498 27.4429C23.5548 27.4593 23.5515 27.4724 23.5498 27.4872ZM23.5334 27.5742V27.5529V27.5742Z" fill="url(#paint0_linear_494_16964)"/>
<path id="Vector_7" d="M37.0813 13.6974L23.1485 19.2236C22.7759 19.3729 22.5461 19.2121 22.5461 18.8018V8.37468C22.5461 7.47197 22.2425 6.29189 24.0019 5.65179L38.3418 0.0714146C38.7144 -0.0779424 38.9442 0.0829048 38.9442 0.493226V10.9203C38.9442 11.8165 37.9036 13.3724 37.0813 13.6974Z" fill="url(#paint1_linear_494_16964)"/>
<g id="Group" style="mix-blend-mode:multiply">
<path id="Vector_8" style="mix-blend-mode:multiply" d="M38.3077 0.0561337L24.3978 5.49207C24.0498 5.62994 23.2784 5.8909 22.9485 6.32748L22.8287 6.49161C21.8948 7.73899 23.9776 11.2169 24.3338 11.5369C24.36 11.5448 24.3857 11.5541 24.4109 11.5648L33.3674 15.1395L37.0849 13.6624C37.9056 13.3341 38.9461 11.7815 38.9461 10.8722V0.453322C38.9494 0.0561309 38.6835 -0.091582 38.3077 0.0561337Z" fill="url(#paint2_linear_494_16964)"/>
</g>
<path id="Vector_9" d="M10.7824 26.9255L15.1186 4.52691C15.1186 4.48423 15.1334 4.4432 15.14 4.40217C15.3895 3.83428 16.8404 0.858631 19.0709 2.81176C19.0709 2.81176 18.544 1.65138 17.4542 1.5332H5.62217C5.29391 1.5332 5.01489 1.90085 4.9 2.50156L0.560437 24.9002C0.304397 26.2132 0.903462 27.8939 1.63383 27.8939H10.0569C10.3917 27.8939 10.6658 27.5262 10.7824 26.9255Z" fill="url(#paint3_linear_494_16964)"/>
<path id="Vector_10" style="mix-blend-mode:multiply" d="M23.5221 26.9256L23.5106 26.8633L20.5104 25.7849C20.3194 25.6947 20.1595 25.5498 20.0508 25.3687C19.9421 25.1876 19.8896 24.9783 19.8998 24.7673V8.12634V6.89538L19.5223 4.527C19.3582 3.99358 19.2515 3.39944 19.1317 2.93331L19.0742 2.81186C16.8651 0.917813 15.4864 3.71621 15.191 4.29722C15.1512 4.36774 15.1276 4.44624 15.122 4.527L12.4631 18.2646L13.6498 24.9249C13.9025 26.2035 14.8742 27.6823 15.5422 27.8792H15.5553H15.5914C15.6067 27.88 15.6221 27.88 15.6374 27.8792H23.2086C23.4236 27.8792 23.5484 27.6823 23.5533 27.331C23.5599 27.2309 23.5369 27.0832 23.5221 26.9256Z" fill="url(#paint4_linear_494_16964)"/>
<path id="Vector_11" d="M22.5536 11.7318V22.4626C22.5536 22.8844 22.6767 23.3226 23.046 23.4703L37.0905 28.9095C37.9111 29.2378 38.9534 28.4713 38.9534 27.5423V16.8116C38.9597 16.6149 38.9052 16.4209 38.7975 16.2562C38.6897 16.0915 38.5338 15.9639 38.351 15.8909L24.4132 10.3647C24.3869 10.3548 24.1128 10.1365 24.0849 10.1283C23.7321 9.8099 20.8877 6.84573 24.0045 5.65088C24.0045 5.65088 22.6226 5.99883 22.5487 7.389V11.7318H22.5536Z" fill="url(#paint5_linear_494_16964)"/>
<path id="Vector_12" style="mix-blend-mode:multiply" d="M23.5134 26.8634L20.5411 25.7785C20.3512 25.7053 20.1887 25.5751 20.0758 25.4059C19.963 25.2366 19.9053 25.0365 19.9108 24.8331V8.12646C19.489 12.2559 17.9642 26.5318 15.5909 27.8498H15.6205H15.6697L23.2196 27.8859C23.4297 27.8859 23.5594 27.689 23.5643 27.3377C23.5639 27.211 23.5518 27.0847 23.5282 26.9602L23.5134 26.8634Z" fill="url(#paint6_linear_494_16964)"/>
</g>
</g>
<defs>
<linearGradient id="paint0_linear_494_16964" x1="16.448" y1="32.4948" x2="17.0224" y2="-42.4824" gradientUnits="userSpaceOnUse">
<stop stop-color="#3E54D3"/>
<stop offset="0.37" stop-color="#4F80E2"/>
<stop offset="0.7" stop-color="#15CDCA"/>
<stop offset="1" stop-color="#15CDCA"/>
</linearGradient>
<linearGradient id="paint1_linear_494_16964" x1="30.5047" y1="39.4196" x2="30.9347" y2="-16.8059" gradientUnits="userSpaceOnUse">
<stop stop-color="#3E54D3"/>
<stop offset="0.37" stop-color="#4F80E2"/>
<stop offset="0.7" stop-color="#15CDCA"/>
<stop offset="1" stop-color="#15CDCA"/>
</linearGradient>
<linearGradient id="paint2_linear_494_16964" x1="22.5924" y1="7.56994" x2="38.9494" y2="7.56994" gradientUnits="userSpaceOnUse">
<stop stop-color="#DEDFDF"/>
<stop offset="1" stop-color="white"/>
</linearGradient>
<linearGradient id="paint3_linear_494_16964" x1="9.5711" y1="42.3142" x2="10.0028" y2="-13.9113" gradientUnits="userSpaceOnUse">
<stop stop-color="#3E54D3"/>
<stop offset="0.37" stop-color="#4F80E2"/>
<stop offset="0.7" stop-color="#15CDCA"/>
<stop offset="1" stop-color="#15CDCA"/>
</linearGradient>
<linearGradient id="paint4_linear_494_16964" x1="12.4582" y1="15.0279" x2="23.5599" y2="15.0279" gradientUnits="userSpaceOnUse">
<stop stop-color="#DEDFDF"/>
<stop offset="1" stop-color="white"/>
</linearGradient>
<linearGradient id="paint5_linear_494_16964" x1="30.5713" y1="40.7875" x2="30.9948" y2="-14.3072" gradientUnits="userSpaceOnUse">
<stop stop-color="#3E54D3"/>
<stop offset="0.37" stop-color="#4F80E2"/>
<stop offset="0.7" stop-color="#15CDCA"/>
<stop offset="1" stop-color="#15CDCA"/>
</linearGradient>
<linearGradient id="paint6_linear_494_16964" x1="19.9535" y1="27.7086" x2="19.9535" y2="-9.95394" gradientUnits="userSpaceOnUse">
<stop stop-color="#DEDFDF"/>
<stop offset="1" stop-color="white"/>
</linearGradient>
</defs>
</svg>
