<svg width="25" height="24" viewBox="0 0 25 24" fill="none" xmlns="http://www.w3.org/2000/svg">
<g id="library_books" clip-path="url(#clip0_1267_8294)">
<path id="Vector" d="M4.5 6H2.5V20C2.5 21.1 3.4 22 4.5 22H18.5V20H4.5V6ZM20.5 2H8.5C7.4 2 6.5 2.9 6.5 4V16C6.5 17.1 7.4 18 8.5 18H20.5C21.6 18 22.5 17.1 22.5 16V4C22.5 2.9 21.6 2 20.5 2ZM19.5 11H9.5V9H19.5V11ZM15.5 15H9.5V13H15.5V15ZM19.5 7H9.5V5H19.5V7Z" fill="#8E8E8E"/>
</g>
<defs>
<clipPath id="clip0_1267_8294">
<rect width="24" height="24" fill="white" transform="translate(0.5)"/>
</clipPath>
</defs>
</svg>
